{
   "page": 1,
   "total_results": 10000,
   "total_pages": 500,
   "results": [
      {
         "popularity": 2011.375,
         "vote_count": 0,
         "video": false,
         "poster_path": "/6CoRTJTmijhBLJTUNoVSUNxZMEI.jpg",
         "id": 694919,
         "adult": false,
         "backdrop_path": "/gYRzgYE3EOnhUkv7pcbAAsVLe5f.jpg",
         "original_language": "en",
         "original_title": "Money Plane",
         "genre_ids": [28],
         "title": "Money Plane",
         "vote_average": 0,
         "overview": "A professional thief with $40 million in debt and his family's life on the line must commit one final heist - rob a futuristic airborne casino filled with the world's most dangerous criminals.",
         "release_date": "2020-09-29"
      },
      {
         "popularity": 1457.551,
         "vote_count": 1707,
         "video": false,
         "poster_path": "/aKx1ARwG55zZ0GpRvU2WrGrCG9o.jpg",
         "id": 337401,
         "adult": false,
         "backdrop_path": "/zzWGRw277MNoCs3zhyG3YmYQsXv.jpg",
         "original_language": "en",
         "original_title": "Mulan",
         "genre_ids": [28, 12, 18, 14, 10752],
         "title": "Mulan",
         "vote_average": 7.5,
         "overview": "When the Emperor of China issues a decree that one man per family must serve in the Imperial Chinese Army to defend the country from Huns, Hua Mulan, the eldest daughter of an honored warrior, steps in to take the place of her ailing father. She is spirited, determined and quick on her feet. Disguised as a man by the name of Hua Jun, she is tested every step of the way and must harness her innermost strength and embrace her true potential.",
         "release_date": "2020-09-10"
      },
      {
         "popularity": 810.077,
         "vote_count": 73,
         "video": false,
         "poster_path": "/9Rj8l6gElLpRL7Kj17iZhrT5Zuw.jpg",
         "id": 734309,
         "adult": false,
         "backdrop_path": "/7fvdg211A2L0mHddvzyArRuRalp.jpg",
         "original_language": "en",
         "original_title": "Santana",
         "genre_ids": [28],
         "title": "Santana",
         "vote_average": 5.7,
         "overview": "Two brothers — one a narcotics agent and the other a general — finally discover the identity of the drug lord who murdered their parents decades ago. They may kill each other before capturing the bad guys.",
         "release_date": "2020-08-28"
      },
      {
         "popularity": 762.17,
         "vote_count": 61,
         "video": false,
         "poster_path": "/ugZW8ocsrfgI95pnQ7wrmKDxIe.jpg",
         "id": 724989,
         "adult": false,
         "backdrop_path": "/86L8wqGMDbwURPni2t7FQ0nDjsH.jpg",
         "original_language": "en",
         "original_title": "Hard Kill",
         "genre_ids": [28, 53],
         "title": "Hard Kill",
         "vote_average": 5.4,
         "overview": "The work of billionaire tech CEO Donovan Chalmers is so valuable that he hires mercenaries to protect it, and a terrorist group kidnaps his daughter just to get it.",
         "release_date": "2020-08-25"
      },
      {
         "popularity": 650.31,
         "vote_count": 217,
         "video": false,
         "poster_path": "/uOw5JD8IlD546feZ6oxbIjvN66P.jpg",
         "id": 718444,
         "adult": false,
         "backdrop_path": "/x4UkhIQuHIJyeeOTdcbZ3t3gBSa.jpg",
         "original_language": "en",
         "original_title": "Rogue",
         "genre_ids": [28],
         "title": "Rogue",
         "vote_average": 5.9,
         "overview": "Battle-hardened O’Hara leads a lively mercenary team of soldiers on a daring mission: rescue hostages from their captors in remote Africa. But as the mission goes awry and the team is stranded, O’Hara’s squad must face a bloody, brutal encounter with a gang of rebels.",
         "release_date": "2020-08-20"
      },
      {
         "popularity": 613.681,
         "vote_count": 148,
         "video": false,
         "poster_path": "/sMO1v5TUf8GOJHbJieDXsgWT2Ud.jpg",
         "id": 438396,
         "adult": false,
         "backdrop_path": "/qGZe9qTuydxyJYQ60XDtEckzLR8.jpg",
         "original_language": "es",
         "original_title": "Orígenes secretos",
         "genre_ids": [18, 53],
         "title": "Unknown Origins",
         "vote_average": 6.2,
         "overview": "In Madrid, Spain, a mysterious serial killer ruthlessly murders his victims by recreating the first appearance of several comic book superheroes. Cosme, a veteran police inspector who is about to retire, works on the case along with the tormented inspector David Valentín and his own son Jorge Elías, a nerdy young man who owns a comic book store.",
         "release_date": "2020-08-28"
      },
      {
         "popularity": 610.94,
         "vote_count": 450,
         "video": false,
         "poster_path": "/sy6DvAu72kjoseZEjocnm2ZZ09i.jpg",
         "id": 581392,
         "adult": false,
         "backdrop_path": "/gEjNlhZhyHeto6Fy5wWy5Uk3A9D.jpg",
         "original_language": "ko",
         "original_title": "반도",
         "genre_ids": [28, 27, 53],
         "title": "Peninsula",
         "vote_average": 7.2,
         "overview": "A soldier and his team battle hordes of post-apocalyptic zombies in the wastelands of the Korean Peninsula.",
         "release_date": "2020-07-15"
      },
      {
         "popularity": 578.025,
         "vote_count": 290,
         "video": false,
         "poster_path": "/kiX7UYfOpYrMFSAGbI6j1pFkLzQ.jpg",
         "id": 613504,
         "adult": false,
         "backdrop_path": "/r5srC0cqU36n38azFnCyReEksiR.jpg",
         "original_language": "en",
         "original_title": "After We Collided",
         "genre_ids": [18, 10749],
         "title": "After We Collided",
         "vote_average": 6.8,
         "overview": "Tessa finds herself struggling with her complicated relationship with Hardin; she faces a dilemma that could change their lives forever.",
         "release_date": "2020-09-02"
      },
      {
         "popularity": 482.03,
         "vote_count": 1226,
         "video": false,
         "poster_path": "/TnOeov4w0sTtV2gqICqIxVi74V.jpg",
         "id": 605116,
         "adult": false,
         "backdrop_path": "/qVygtf2vU15L2yKS4Ke44U4oMdD.jpg",
         "original_language": "en",
         "original_title": "Project Power",
         "genre_ids": [28, 80, 878],
         "title": "Project Power",
         "vote_average": 6.7,
         "overview": "An ex-soldier, a teen and a cop collide in New Orleans as they hunt for the source behind a dangerous new pill that grants users temporary superpowers.",
         "release_date": "2020-08-14"
      },
      {
         "popularity": 403.899,
         "vote_count": 78,
         "video": false,
         "poster_path": "/i4kPwXPlM1iy8Jf3S1uuLuwqQAV.jpg",
         "id": 721452,
         "adult": false,
         "backdrop_path": "/riDrpqQtZpXGeiJdlmfcwwPH7nN.jpg",
         "original_language": "en",
         "original_title": "One Night in Bangkok",
         "genre_ids": [28, 53],
         "title": "One Night in Bangkok",
         "vote_average": 7.2,
         "overview": "A hit man named Kai flies into Bangkok, gets a gun, and orders a cab. He offers a professional female driver big money to be his all-night driver. But when she realizes Kai is committing brutal murders at each stop, it's too late to walk away. Meanwhile, an offbeat police detective races to decode the string of slayings before more blood is spilled.",
         "release_date": "2020-08-25"
      },
      {
         "popularity": 376.071,
         "vote_count": 67,
         "video": false,
         "poster_path": "/n6hptKS7Y0ZjkYwbqKOK3jz9XAC.jpg",
         "id": 594328,
         "adult": false,
         "backdrop_path": "/lkeBhXGJFRlhI7cBWn8LQQAdZqK.jpg",
         "original_language": "en",
         "original_title": "Phineas and Ferb  The Movie Candace Against the Universe",
         "genre_ids": [16, 35, 10402, 878, 10751, 10770],
         "title": "Phineas and Ferb  The Movie Candace Against the Universe",
         "vote_average": 7,
         "overview": "Phineas and Ferb travel across the galaxy to rescue their older sister Candace, who has been abducted by aliens and taken to a utopia in a far-off planet, free of her pesky little brothers.",
         "release_date": "2020-08-28"
      },
      {
         "popularity": 359.162,
         "vote_count": 282,
         "video": false,
         "poster_path": "/uGhQ2ZGBpzCj6wC5jUrybsZuPTI.jpg",
         "id": 539885,
         "adult": false,
         "backdrop_path": "/hP1BYEj0uukHcYyKPxaRjI4GBOe.jpg",
         "original_language": "en",
         "original_title": "Ava",
         "genre_ids": [28, 80, 18, 53],
         "title": "Ava",
         "vote_average": 6,
         "overview": "A black ops assassin is forced to fight for her own survival after a job goes dangerously wrong.",
         "release_date": "2020-08-06"
      },
      {
         "popularity": 334.504,
         "vote_count": 79,
         "video": false,
         "poster_path": "/eDnHgozW8vfOaLHzfpHluf1GZCW.jpg",
         "id": 606234,
         "adult": false,
         "backdrop_path": "/u9YEh2xVAPVTKoaMNlB5tH6pXkm.jpg",
         "original_language": "en",
         "original_title": "Archive",
         "genre_ids": [878],
         "title": "Archive",
         "vote_average": 6.1,
         "overview": "2038: George Almore is working on a true human-equivalent AI, and his latest prototype is almost ready. This sensitive phase is also the riskiest as he has a goal that must be hidden at all costs—being reunited with his dead wife.",
         "release_date": "2020-08-13"
      },
      {
         "popularity": 322.4,
         "vote_count": 1,
         "video": false,
         "poster_path": "/1IKhHbjDcaGTn0YLvoASGwTlzxN.jpg",
         "id": 709621,
         "adult": false,
         "backdrop_path": "/g6PTw4nQWI5bh0iYAoFzV82ovCt.jpg",
         "original_language": "en",
         "original_title": "Tribal: Get Out Alive",
         "genre_ids": [28, 27, 53],
         "title": "Tribal: Get Out Alive",
         "vote_average": 1,
         "overview": "After retiring from active duty, former elite military operative Caitlin Ross now runs a private security firm. She, however, becomes the target when her private security firm accepts a contract from a young millionaire.",
         "release_date": "2020-07-07"
      },
      {
         "popularity": 302.751,
         "vote_count": 394,
         "video": false,
         "poster_path": "/kPzcvxBwt7kEISB9O4jJEuBn72t.jpg",
         "id": 677638,
         "adult": false,
         "backdrop_path": "/pO1SnM5a1fEsYrFaVZW78Wb0zRJ.jpg",
         "original_language": "en",
         "original_title": "We Bare Bears: The Movie",
         "genre_ids": [12, 16, 35, 10751],
         "title": "We Bare Bears: The Movie",
         "vote_average": 7.8,
         "overview": "When Grizz, Panda, and Ice Bear's love of food trucks and viral videos went out of hand, it catches the attention of Agent Trout from the National Wildlife Control, who pledges to restore the “natural order” by separating them forever. Chased away from their home, the Bears embark on an epic road trip as they seek refuge in Canada, with their journey being filled with new friends, perilous obstacles, and huge parties. The risky journey also forces the Bears to face how they first met and became brothers, in order to keep their family bond from splitting apart.",
         "release_date": "2020-06-30"
      },
      {
         "popularity": 295.364,
         "vote_count": 282,
         "video": false,
         "poster_path": "/imy1OoT1xddt2kqw6hhc4v01e8i.jpg",
         "id": 623491,
         "adult": false,
         "backdrop_path": "/naUJGskMlDg2HZ0FhsaMG5xPF2K.jpg",
         "original_language": "en",
         "original_title": "The Babysitter: Killer Queen",
         "genre_ids": [35, 27],
         "title": "The Babysitter: Killer Queen",
         "vote_average": 6.7,
         "overview": "Two years after defeating a satanic cult led by his babysitter Bee, Cole's trying to forget his past and focus on surviving high school. But when old enemies unexpectedly return, Cole will once again have to outsmart the forces of evil.",
         "release_date": "2020-09-10"
      },
      {
         "popularity": 292.445,
         "vote_count": 1606,
         "video": false,
         "poster_path": "/k68nPLbIST6NP96JmTxmZijEvCA.jpg",
         "id": 577922,
         "adult": false,
         "backdrop_path": "/wzJRB4MKi3yK138bJyuL9nx47y6.jpg",
         "original_language": "en",
         "original_title": "Tenet",
         "genre_ids": [28, 878, 53],
         "title": "Tenet",
         "vote_average": 7.5,
         "overview": "Armed with only one word - Tenet - and fighting for the survival of the entire world, the Protagonist journeys through a twilight world of international espionage on a mission that will unfold in something beyond real time.",
         "release_date": "2020-08-22"
      },
      {
         "popularity": 288.599,
         "vote_count": 4,
         "video": false,
         "poster_path": "/pXv4qbWyj6ycMaWkK2LzlizZQjf.jpg",
         "id": 713825,
         "adult": false,
         "backdrop_path": "/tWxCVe4rQZa3BvR3tMT3t74oVTT.jpg",
         "original_language": "en",
         "original_title": "Robot Riot",
         "genre_ids": [28, 878],
         "title": "Robot Riot",
         "vote_average": 3.8,
         "overview": "Unconscious soldiers are dropped into a testing site only to discover their memories have been wiped and that once docile machines are the new intelligence.",
         "release_date": "2020-06-12"
      },
      {
         "popularity": 284.943,
         "vote_count": 635,
         "video": false,
         "poster_path": "/jHo2M1OiH9Re33jYtUQdfzPeUkx.jpg",
         "id": 385103,
         "adult": false,
         "backdrop_path": "/fKtYXUhX5fxMxzQfyUcQW9Shik6.jpg",
         "original_language": "en",
         "original_title": "Scoob!",
         "genre_ids": [12, 16, 35, 10751],
         "title": "Scoob!",
         "vote_average": 7.3,
         "overview": "In Scooby-Doo’s greatest adventure yet, see the never-before told story of how lifelong friends Scooby and Shaggy first met and how they joined forces with young detectives Fred, Velma, and Daphne to form the famous Mystery Inc. Now, with hundreds of cases solved, Scooby and the gang face their biggest, toughest mystery ever: an evil plot to unleash the ghost dog Cerberus upon the world. As they race to stop this global “dogpocalypse,” the gang discovers that Scooby has a secret legacy and an epic destiny greater than anyone ever imagined.",
         "release_date": "2020-07-08"
      },
      {
         "popularity": 281.952,
         "vote_count": 89,
         "video": false,
         "poster_path": "/sDi6wKgECUjDug2gn4uODSqZ3yC.jpg",
         "id": 632618,
         "adult": false,
         "backdrop_path": "/cVdYaAQmd5DZNdo0KFJruz7JpUs.jpg",
         "original_language": "es",
         "original_title": "Crímenes de familia",
         "genre_ids": [80, 18, 53],
         "title": "The Crimes That Bind",
         "vote_average": 6.8,
         "overview": "When her son is accused of raping and trying to murder his ex-wife, Alicia embarks on a journey that will change her life forever.",
         "release_date": "2020-08-20"
      }
   ]
}
